{
	"server": {
		"port": 4000
	},
	"mysql": {
        "host": "localhost",
        "port": 3306,
        "user": "root",
        "password": "admin123A@",
        "db": "pushNotificationsTesting"
    }
}
